<svg height="64" width="64">
  <g fill="none" stroke-width="6">
    <path stroke="#A0A0A0" stroke-linejoin="round" d="M20 16 53 16 53 20"/>
    <path stroke="#848484" stroke-linejoin="round" d="M6 12 20 12 20 20 56 20 56 54 6 54 z"/>
    
  </g>
</svg>