<svg height="68" width="68">
  <g fill="none" stroke="#848484" stroke-width="6">
    <path stroke-linejoin="round" d="M18 39 L18 58 44 58 54 48 54 14 49 14 "/>
    <path stroke-linejoin="round" fill="#848484" d="M44 58 L54 48 44 48z"/>
    <path stroke-linejoin="round" d="M10 8 L 44 8 44 34 10 34  z"/>
    <path  stroke-width="3" d="M14 22 L 18 22, 20 18, 23 24, 28 16, 32 26, 34 22, 40 22"/>   
  </g>
</svg>