<svg height="80" width="80">
	<circle cx="32" cy="32" r="22" stroke="lightgrey"
		stroke-width="11" fill="white" 
		fill-opacity="0.0"/>
	<path stroke="lightgrey" stroke-linejoin="round"
		stroke-width="6" fill="lightgrey"
		d="M 22 30 L 42 30 42 34 22 34 z"/>
	<path stroke="lightgrey" stroke-linejoin="round"
		stroke-width="6" fill="lightgrey"
		d="M 30 22 L 34 22 34 42 30 42 z"/>
	<path stroke="lightgrey" stroke-linejoin="round" 
		stroke-width="16" 
		d="M 48 48 L 68 68"/>
	<circle cx="68" cy="68"	
		r="8" fill="lightgrey" />
</svg> 