<svg height="64" width="64">
	<circle cx="32" cy="32" r="28" stroke="royalblue" stroke-width="6" fill="white" fill-opacity="0.0"/>
	<path stroke="royalblue" stroke-width="10" d="M 32 26 L 32 50"/>
	<circle cx="32" cy="18"	r="5" fill="royalblue" />

</svg> 