<?xml version="1.0" encoding="utf-8"?>
<!-- Generator: Adobe Illustrator 16.0.3, SVG Export Plug-In . SVG Version: 6.00 Build 0)  -->
<!DOCTYPE svg PUBLIC "-//W3C//DTD SVG 1.1//EN" "http://www.w3.org/Graphics/SVG/1.1/DTD/svg11.dtd">
<svg version="1.1" id="Ebene_1" xmlns="http://www.w3.org/2000/svg" xmlns:xlink="http://www.w3.org/1999/xlink" x="0px" y="0px"
	 width="152.583px" height="152.417px" viewBox="0 0 152.583 152.417" enable-background="new 0 0 152.583 152.417"
	 xml:space="preserve">
<g>
	<g>
		<circle fill="none" stroke="#96C9E4" stroke-width="3" stroke-miterlimit="10" cx="76.307" cy="76.224" r="74.64"/>
	</g>
	<path fill="none" stroke="#96C9E4" stroke-miterlimit="10" d="M142.193,76.224c0,36.387-29.498,65.887-65.888,65.887
		c-36.385,0-65.885-29.5-65.885-65.887s29.5-65.887,65.885-65.887C112.695,10.337,142.193,39.837,142.193,76.224z"/>
</g>
</svg>
