<?xml version="1.0" encoding="utf-8"?>
<!-- Generator: Adobe Illustrator 16.0.3, SVG Export Plug-In . SVG Version: 6.00 Build 0)  -->
<!DOCTYPE svg PUBLIC "-//W3C//DTD SVG 1.1//EN" "http://www.w3.org/Graphics/SVG/1.1/DTD/svg11.dtd">
<svg version="1.1" xmlns="http://www.w3.org/2000/svg" xmlns:xlink="http://www.w3.org/1999/xlink" x="0px" y="0px"
	 width="1133.858px" height="1133.858px" viewBox="0 0 1133.858 1133.858" enable-background="new 0 0 1133.858 1133.858"
	 xml:space="preserve">
<g id="Ebene_1" display="none">
	<path display="inline" fill="#96C9E4" d="M566.921,894.114c-181.046,0-328.339-147.291-328.339-328.339
		c0-181.05,147.293-328.346,328.339-328.346c181.056,0,328.354,147.296,328.354,328.346
		C895.275,746.823,747.977,894.114,566.921,894.114z M566.921,250.366c-173.912,0-315.402,141.491-315.402,315.409
		c0,173.915,141.49,315.402,315.402,315.402c173.921,0,315.417-141.487,315.417-315.402
		C882.338,391.857,740.842,250.366,566.921,250.366z"/>
	<path display="inline" fill="#96C9E4" d="M566.921,852.059c-157.853,0-286.276-128.427-286.276-286.284
		c0-157.858,128.423-286.283,286.276-286.283c157.859,0,286.292,128.425,286.292,286.283
		C853.213,723.632,724.78,852.059,566.921,852.059z M566.921,283.803c-155.475,0-281.964,126.493-281.964,281.972
		c0,155.482,126.489,281.972,281.964,281.972c155.484,0,281.979-126.49,281.979-281.972
		C848.9,410.296,722.405,283.803,566.921,283.803z"/>
</g>
<g id="Ebene_3" display="none">
	<rect x="560.452" y="99.879" display="inline" fill="#96C9E4" width="12.937" height="144.077"/>
</g>
<g id="Ebene_2">
	<polyline fill="#F5F4F5" points="600.668,56.56 538.068,55.485 568.918,132.536 	"/>
	<path fill="#F5F4F5" d="M582.574,281.225l0.141-56.457l-16.629-36.096l-11.482,12.597l1.109,79.907
		C564.679,280.77,573.646,280.786,582.574,281.225z"/>
</g>
</svg>
