<?xml version="1.0" encoding="UTF-8" standalone="no"?>
<!-- Generator: Adobe Illustrator 16.0.3, SVG Export Plug-In . SVG Version: 6.00 Build 0)  -->

<svg
   xmlns:dc="http://purl.org/dc/elements/1.1/"
   xmlns:cc="http://creativecommons.org/ns#"
   xmlns:rdf="http://www.w3.org/1999/02/22-rdf-syntax-ns#"
   xmlns:svg="http://www.w3.org/2000/svg"
   xmlns="http://www.w3.org/2000/svg"
   xmlns:sodipodi="http://sodipodi.sourceforge.net/DTD/sodipodi-0.dtd"
   xmlns:inkscape="http://www.inkscape.org/namespaces/inkscape"
   version="1.1"
   x="0px"
   y="0px"
   width="13"
   height="144"
   viewBox="0 0 12.999999 143.99999"
   enable-background="new 0 0 1133.858 1133.858"
   xml:space="preserve"
   id="svg2"
   inkscape:version="0.48.4 r9939"
   sodipodi:docname="test.svg"><metadata
   id="metadata21"><rdf:RDF><cc:Work
       rdf:about=""><dc:format>image/svg+xml</dc:format><dc:type
         rdf:resource="http://purl.org/dc/dcmitype/StillImage" /><dc:title></dc:title></cc:Work></rdf:RDF></metadata><defs
   id="defs19" /><sodipodi:namedview
   pagecolor="#ffffff"
   bordercolor="#666666"
   borderopacity="1"
   objecttolerance="10"
   gridtolerance="10"
   guidetolerance="10"
   inkscape:pageopacity="0"
   inkscape:pageshadow="2"
   inkscape:window-width="1366"
   inkscape:window-height="706"
   id="namedview17"
   showgrid="false"
   inkscape:zoom="2.8284271"
   inkscape:cx="-17.597726"
   inkscape:cy="90.620887"
   inkscape:window-x="-8"
   inkscape:window-y="-8"
   inkscape:window-maximized="1"
   inkscape:current-layer="svg2"
   showborder="false" />
<g
   id="Ebene_1"
   display="none"
   style="display:none"
   transform="translate(0,-989.85801)">
	<path
   display="inline"
   d="m 566.921,894.114 c -181.046,0 -328.339,-147.291 -328.339,-328.339 0,-181.05 147.293,-328.346 328.339,-328.346 181.056,0 328.354,147.296 328.354,328.346 0,181.048 -147.298,328.339 -328.354,328.339 z m 0,-643.748 c -173.912,0 -315.402,141.491 -315.402,315.409 0,173.915 141.49,315.402 315.402,315.402 173.921,0 315.417,-141.487 315.417,-315.402 0,-173.918 -141.496,-315.409 -315.417,-315.409 z"
   id="path5"
   inkscape:connector-curvature="0"
   style="fill:#96c9e4;display:inline" />
	<path
   display="inline"
   d="m 566.921,852.059 c -157.853,0 -286.276,-128.427 -286.276,-286.284 0,-157.858 128.423,-286.283 286.276,-286.283 157.859,0 286.292,128.425 286.292,286.283 0,157.857 -128.433,286.284 -286.292,286.284 z m 0,-568.256 c -155.475,0 -281.964,126.493 -281.964,281.972 0,155.482 126.489,281.972 281.964,281.972 155.484,0 281.979,-126.49 281.979,-281.972 0,-155.479 -126.495,-281.972 -281.979,-281.972 z"
   id="path7"
   inkscape:connector-curvature="0"
   style="fill:#96c9e4;display:inline" />
</g>
<g
   id="Ebene_3"
   transform="matrix(1.0048697,0,0,0.99946555,-563.18126,-99.825618)">
	<rect
   x="560.45203"
   y="99.878998"
   width="12.937"
   height="144.077"
   id="rect10"
   style="fill:#96c9e4" />
</g>
<g
   id="Ebene_2"
   display="none"
   style="display:none"
   transform="translate(0,-989.85801)">
	<polyline
   display="inline"
   points="600.668,56.56 538.068,55.485 568.918,132.536  "
   id="polyline13"
   style="fill:#f5f4f5;display:inline" />
	<path
   display="inline"
   d="m 582.574,281.225 0.141,-56.457 -16.629,-36.096 -11.482,12.597 1.109,79.907 c 8.966,-0.406 17.933,-0.39 26.861,0.049 z"
   id="path15"
   inkscape:connector-curvature="0"
   style="fill:#f5f4f5;display:inline" />
</g>
</svg>