<?xml version="1.0" encoding="UTF-8" standalone="no"?>
<!-- Created with Inkscape (http://www.inkscape.org/) -->

<svg
   xmlns:dc="http://purl.org/dc/elements/1.1/"
   xmlns:cc="http://creativecommons.org/ns#"
   xmlns:rdf="http://www.w3.org/1999/02/22-rdf-syntax-ns#"
   xmlns:svg="http://www.w3.org/2000/svg"
   xmlns="http://www.w3.org/2000/svg"
   xmlns:sodipodi="http://sodipodi.sourceforge.net/DTD/sodipodi-0.dtd"
   xmlns:inkscape="http://www.inkscape.org/namespaces/inkscape"
   width="300"
   height="300"
   id="svg2"
   version="1.1"
   inkscape:version="0.48.4 r9939"
   sodipodi:docname="Neues Dokument 1">
  <defs
     id="defs4" />
  <sodipodi:namedview
     id="base"
     pagecolor="#ffffff"
     bordercolor="#666666"
     borderopacity="1.0"
     inkscape:pageopacity="0.0"
     inkscape:pageshadow="2"
     inkscape:zoom="2.8284271"
     inkscape:cx="160.69936"
     inkscape:cy="140.56638"
     inkscape:document-units="px"
     inkscape:current-layer="layer1"
     showgrid="false"
     inkscape:window-width="1366"
     inkscape:window-height="706"
     inkscape:window-x="-8"
     inkscape:window-y="-8"
     inkscape:window-maximized="1" />
  <metadata
     id="metadata7">
    <rdf:RDF>
      <cc:Work
         rdf:about="">
        <dc:format>image/svg+xml</dc:format>
        <dc:type
           rdf:resource="http://purl.org/dc/dcmitype/StillImage" />
        <dc:title></dc:title>
      </cc:Work>
    </rdf:RDF>
  </metadata>
  <g
     inkscape:label="Ebene 1"
     inkscape:groupmode="layer"
     id="layer1"
     transform="translate(0,-752.36218)">
    <path
       sodipodi:type="arc"
       style="fill:#95c9e4;fill-opacity:0;stroke:#b0b0b0;stroke-width:0.76160359;stroke-miterlimit:4;stroke-opacity:1;stroke-dasharray:none"
       id="path2985"
       sodipodi:cx="156.57364"
       sodipodi:cy="129.28423"
       sodipodi:rx="103.03556"
       sodipodi:ry="55.558392"
       d="m 259.6092,129.28423 a 103.03556,55.558392 0 1 1 -206.071122,0 103.03556,55.558392 0 1 1 206.071122,0 z"
       transform="matrix(0.9656784,0,0,1.7908945,-1.1997825,670.82777)" />
    <path
       sodipodi:type="arc"
       style="fill:#95c9e4;fill-opacity:0;stroke:#eaeaea;stroke-width:0.58478816;stroke-miterlimit:4;stroke-opacity:1;stroke-dasharray:none"
       id="path3755"
       sodipodi:cx="132.83505"
       sodipodi:cy="113.12178"
       sodipodi:rx="32.829956"
       sodipodi:ry="25.253813"
       d="m 165.66501,113.12178 a 32.829956,25.253813 0 1 1 -65.65991,0 32.829956,25.253813 0 1 1 65.65991,0 z"
       transform="matrix(2.9995752,0,0,3.8994476,-248.44872,461.24972)" />
    <path
       sodipodi:type="arc"
       style="fill:#c83737;fill-opacity:0;stroke:#fdfdfd;stroke-width:0.16907839;stroke-miterlimit:4;stroke-opacity:1;stroke-dasharray:none"
       id="path3757"
       sodipodi:cx="134.60283"
       sodipodi:cy="128.02153"
       sodipodi:rx="26.516504"
       sodipodi:ry="10.354064"
       d="m 161.11933,128.02153 a 26.516504,10.354064 0 1 1 -53.03301,0 26.516504,10.354064 0 1 1 53.03301,0 z"
       transform="matrix(3.677051,0,0,9.4168374,-344.94147,-303.19575)" />
  </g>
</svg>
